{
    "file": "single-btag-track-variables.json",
    "ints": [
        "truthOriginLabel",
        "truthVertexIndex",
        "truthBarcode",
        "truthParentBarcode",
        "SV1VertexIndex",
        "JFVertexIndex"
    ],
    "chars": [
        "leptonID"
    ],
    "floats": [
        "AMVFWeightPV"
    ]
}
