{
    "jet_collection": "AntiKt4EMPFlowJets",
    "calibration": {
        "file": "fragments/pflow-calibration.json"
    },
    "selection": {
        "file": "fragments/pflow-selection.json"
    },
    "vertex_collection": "PrimaryVertices",
    "dl2_configs": [],
    "variables": {
        "btag": {
            "file": "fragments/single-btag-variables.json",
            "jet_int_variables": [
                "hits_nL0",
                "hits_nL1",
                "hits_nL2",
                "hits_nL3",
                "hits_sum"
            ],
            "jet_floats": [
                "hits_averageDeltaRToJetAxisL0",
                "hits_averageDeltaRToJetAxisL1",
                "hits_averageDeltaRToJetAxisL2",
                "hits_averageDeltaRToJetAxisL3",
                "hits_SOAP",
                "hits_multiJump03",
                "hits_inversSum"
            ],
            "floats": [
                "dipsLoose20210729_pu",
                "dipsLoose20210729_pc",
                "dipsLoose20210729_pb",
                "DL1r20210824r22_pb",
                "DL1r20210824r22_pc",
                "DL1r20210824r22_pu",
                "DL1dv00_pb",
                "DL1dv00_pc",
                "DL1dv00_pu",
                "DL1d20210824r22_pu",
                "DL1d20210824r22_pc",
                "DL1d20210824r22_pb"
            
            ]
        },
        "default_mapping": {
            "file": "fragments/default-mapping.json"
        }
    },
    "hits": {
        "output_size": 100,
        "dR_to_jet": 0.04,
	"use_splitProbability": true,
	"save_endcap_hits": true,
	"save_only_clean_hits": true,
        "output_name": "hits"
    },
    "tracks": [],
    "truths": [
        {
            "file": "fragments/overlap-leptons.json"
        },
        {
            "association": {
                "file": "fragments/baseline-truth-kinematics.json",
                "particles": "truth_hadrons"
            },
            "association_name": "truth_hadrons",
            "output": {
                "n_to_save": 5,
                "sort_order": "pt"
            }
        }
    ],
    "decorate": {
        "jet_aug": false,
        "btag_jes": true,
        "soft_muon": false,
        "track_truth_info": false,
        "track_sv_info": false,
        "track_lepton_id": false
    },
    "btagging_link": "btaggingLink"
}
